%YAML 1.1
%TAG !u! tag:unity3d.com,2011:
--- !u!1011 &101100000
AvatarMask:
  m_ObjectHideFlags: 0
  m_PrefabParentObject: {fileID: 0}
  m_PrefabInternal: {fileID: 0}
  m_Name: Upperbody
  m_Mask: 00000000010000000100000000000000000000000100000001000000010000000100000000000000000000000100000001000000
  m_Elements:
  - m_Path: 
    m_Weight: 1
  - m_Path: Guard03_Mesh
    m_Weight: 0
  - m_Path: Hips
    m_Weight: 0
  - m_Path: Hips/LeftUpLeg
    m_Weight: 0
  - m_Path: Hips/LeftUpLeg/LeftLeg
    m_Weight: 0
  - m_Path: Hips/LeftUpLeg/LeftLeg/LeftFoot
    m_Weight: 0
  - m_Path: Hips/LeftUpLeg/LeftLeg/LeftFoot/LeftToeBase
    m_Weight: 0
  - m_Path: Hips/LeftUpLeg/LeftLeg/LeftFoot/LeftToeBase/LeftToe_End
    m_Weight: 0
  - m_Path: Hips/RightUpLeg
    m_Weight: 0
  - m_Path: Hips/RightUpLeg/RightLeg
    m_Weight: 0
  - m_Path: Hips/RightUpLeg/RightLeg/RightFoot
    m_Weight: 0
  - m_Path: Hips/RightUpLeg/RightLeg/RightFoot/RightToeBase
    m_Weight: 0
  - m_Path: Hips/RightUpLeg/RightLeg/RightFoot/RightToeBase/RightToe_End
    m_Weight: 0
  - m_Path: Hips/Spine
    m_Weight: 1
  - m_Path: Hips/Spine/Spine1
    m_Weight: 1
  - m_Path: Hips/Spine/Spine1/Spine2
    m_Weight: 1
  - m_Path: Hips/Spine/Spine1/Spine2/LeftShoulder
    m_Weight: 1
  - m_Path: Hips/Spine/Spine1/Spine2/LeftShoulder/LeftArm
    m_Weight: 1
  - m_Path: Hips/Spine/Spine1/Spine2/LeftShoulder/LeftArm/LeftForeArm
    m_Weight: 1
  - m_Path: Hips/Spine/Spine1/Spine2/LeftShoulder/LeftArm/LeftForeArm/LeftHand
    m_Weight: 1
  - m_Path: Hips/Spine/Spine1/Spine2/LeftShoulder/LeftArm/LeftForeArm/LeftHand/LeftHandIndex1
    m_Weight: 1
  - m_Path: Hips/Spine/Spine1/Spine2/LeftShoulder/LeftArm/LeftForeArm/LeftHand/LeftHandIndex1/LeftHandIndex2
    m_Weight: 1
  - m_Path: Hips/Spine/Spine1/Spine2/LeftShoulder/LeftArm/LeftForeArm/LeftHand/LeftHandIndex1/LeftHandIndex2/LeftHandIndex3
    m_Weight: 1
  - m_Path: Hips/Spine/Spine1/Spine2/LeftShoulder/LeftArm/LeftForeArm/LeftHand/LeftHandIndex1/LeftHandIndex2/LeftHandIndex3/LeftHandIndex4
    m_Weight: 1
  - m_Path: Hips/Spine/Spine1/Spine2/LeftShoulder/LeftArm/LeftForeArm/LeftHand/LeftHandThumb1
    m_Weight: 1
  - m_Path: Hips/Spine/Spine1/Spine2/LeftShoulder/LeftArm/LeftForeArm/LeftHand/LeftHandThumb1/LeftHandThumb2
    m_Weight: 1
  - m_Path: Hips/Spine/Spine1/Spine2/LeftShoulder/LeftArm/LeftForeArm/LeftHand/LeftHandThumb1/LeftHandThumb2/LeftHandThumb3
    m_Weight: 1
  - m_Path: Hips/Spine/Spine1/Spine2/LeftShoulder/LeftArm/LeftForeArm/LeftHand/LeftHandThumb1/LeftHandThumb2/LeftHandThumb3/LeftHandThumb4
    m_Weight: 1
  - m_Path: Hips/Spine/Spine1/Spine2/Neck
    m_Weight: 1
  - m_Path: Hips/Spine/Spine1/Spine2/Neck/Head
    m_Weight: 1
  - m_Path: Hips/Spine/Spine1/Spine2/Neck/Head/HeadTop_End
    m_Weight: 1
  - m_Path: Hips/Spine/Spine1/Spine2/RightShoulder
    m_Weight: 1
  - m_Path: Hips/Spine/Spine1/Spine2/RightShoulder/RightArm
    m_Weight: 1
  - m_Path: Hips/Spine/Spine1/Spine2/RightShoulder/RightArm/RightForeArm
    m_Weight: 1
  - m_Path: Hips/Spine/Spine1/Spine2/RightShoulder/RightArm/RightForeArm/RightHand
    m_Weight: 1
  - m_Path: Hips/Spine/Spine1/Spine2/RightShoulder/RightArm/RightForeArm/RightHand/RightHandIndex1
    m_Weight: 1
  - m_Path: Hips/Spine/Spine1/Spine2/RightShoulder/RightArm/RightForeArm/RightHand/RightHandIndex1/RightHandIndex2
    m_Weight: 1
  - m_Path: Hips/Spine/Spine1/Spine2/RightShoulder/RightArm/RightForeArm/RightHand/RightHandIndex1/RightHandIndex2/RightHandIndex3
    m_Weight: 1
  - m_Path: Hips/Spine/Spine1/Spine2/RightShoulder/RightArm/RightForeArm/RightHand/RightHandIndex1/RightHandIndex2/RightHandIndex3/RightHandIndex4
    m_Weight: 1
  - m_Path: Hips/Spine/Spine1/Spine2/RightShoulder/RightArm/RightForeArm/RightHand/RightHandThumb1
    m_Weight: 1
  - m_Path: Hips/Spine/Spine1/Spine2/RightShoulder/RightArm/RightForeArm/RightHand/RightHandThumb1/RightHandThumb2
    m_Weight: 1
  - m_Path: Hips/Spine/Spine1/Spine2/RightShoulder/RightArm/RightForeArm/RightHand/RightHandThumb1/RightHandThumb2/RightHandThumb3
    m_Weight: 1
  - m_Path: Hips/Spine/Spine1/Spine2/RightShoulder/RightArm/RightForeArm/RightHand/RightHandThumb1/RightHandThumb2/RightHandThumb3/RightHandThumb4
    m_Weight: 1
